<?xml version="1.0" encoding="UTF-8" standalone="no"?>
<!DOCTYPE svg PUBLIC "-//W3C//DTD SVG 1.1//EN"
 "http://www.w3.org/Graphics/SVG/1.1/DTD/svg11.dtd">
<!-- Generated by graphviz version 2.43.0 (0)
 -->
<!-- Title: G Pages: 1 -->
<svg width="290pt" height="305pt"
 viewBox="0.00 0.00 290.00 305.00" xmlns="http://www.w3.org/2000/svg" xmlns:xlink="http://www.w3.org/1999/xlink">
<g id="graph0" class="graph" transform="scale(1 1) rotate(0) translate(4 301)">
<title>G</title>
<polygon fill="white" stroke="transparent" points="-4,4 -4,-301 286,-301 286,4 -4,4"/>
<!-- 00 -->
<g id="node1" class="node">
<title>00</title>
<ellipse fill="none" stroke="black" cx="214" cy="-279" rx="27" ry="18"/>
<text text-anchor="middle" x="214" y="-275.3" font-family="Times,serif" font-size="14.00">00</text>
</g>
<!-- 00&#45;&gt;00 -->
<g id="edge2" class="edge">
<title>00&#45;&gt;00</title>
<path fill="none" stroke="black" d="M238.53,-286.75C249.51,-287.49 259,-284.91 259,-279 259,-275.03 254.72,-272.56 248.57,-271.59"/>
<polygon fill="black" stroke="black" points="248.65,-268.09 238.53,-271.25 248.41,-275.09 248.65,-268.09"/>
<text text-anchor="middle" x="270.5" y="-275.3" font-family="Times,serif" font-size="14.00">1/1</text>
</g>
<!-- 01 -->
<g id="node2" class="node">
<title>01</title>
<ellipse fill="none" stroke="black" cx="159" cy="-192" rx="27" ry="18"/>
<text text-anchor="middle" x="159" y="-188.3" font-family="Times,serif" font-size="14.00">01</text>
</g>
<!-- 00&#45;&gt;01 -->
<g id="edge1" class="edge">
<title>00&#45;&gt;01</title>
<path fill="none" stroke="black" d="M203.65,-262.01C195.51,-249.43 184.03,-231.68 174.74,-217.33"/>
<polygon fill="black" stroke="black" points="177.67,-215.41 169.3,-208.92 171.79,-219.21 177.67,-215.41"/>
<text text-anchor="middle" x="200.5" y="-231.8" font-family="Times,serif" font-size="14.00">0/0</text>
</g>
<!-- 11 -->
<g id="node3" class="node">
<title>11</title>
<ellipse fill="none" stroke="black" cx="27" cy="-105" rx="27" ry="18"/>
<text text-anchor="middle" x="27" y="-101.3" font-family="Times,serif" font-size="14.00">11</text>
</g>
<!-- 01&#45;&gt;11 -->
<g id="edge3" class="edge">
<title>01&#45;&gt;11</title>
<path fill="none" stroke="black" d="M137.77,-180.57C124.85,-173.98 108.16,-165.03 94,-156 79.48,-146.74 64.03,-135.33 51.63,-125.75"/>
<polygon fill="black" stroke="black" points="53.62,-122.86 43.58,-119.45 49.3,-128.37 53.62,-122.86"/>
<text text-anchor="middle" x="105.5" y="-144.8" font-family="Times,serif" font-size="14.00">0/1</text>
</g>
<!-- 10 -->
<g id="node4" class="node">
<title>10</title>
<ellipse fill="none" stroke="black" cx="160" cy="-18" rx="27" ry="18"/>
<text text-anchor="middle" x="160" y="-14.3" font-family="Times,serif" font-size="14.00">10</text>
</g>
<!-- 01&#45;&gt;10 -->
<g id="edge4" class="edge">
<title>01&#45;&gt;10</title>
<path fill="none" stroke="black" d="M154.52,-174.1C151.15,-160.43 146.8,-140.63 145,-123 143.38,-107.08 143.27,-102.91 145,-87 146.5,-73.2 149.68,-58.09 152.72,-45.63"/>
<polygon fill="black" stroke="black" points="156.13,-46.43 155.2,-35.88 149.35,-44.7 156.13,-46.43"/>
<text text-anchor="middle" x="156.5" y="-101.3" font-family="Times,serif" font-size="14.00">1/0</text>
</g>
<!-- 11&#45;&gt;11 -->
<g id="edge8" class="edge">
<title>11&#45;&gt;11</title>
<path fill="none" stroke="black" d="M51.53,-112.75C62.51,-113.49 72,-110.91 72,-105 72,-101.03 67.72,-98.56 61.57,-97.59"/>
<polygon fill="black" stroke="black" points="61.65,-94.09 51.53,-97.25 61.41,-101.09 61.65,-94.09"/>
<text text-anchor="middle" x="83.5" y="-101.3" font-family="Times,serif" font-size="14.00">1/1</text>
</g>
<!-- 11&#45;&gt;10 -->
<g id="edge7" class="edge">
<title>11&#45;&gt;10</title>
<path fill="none" stroke="black" d="M43.56,-90.52C56.82,-80 76.1,-65.33 94,-54 105.3,-46.85 118.21,-39.78 129.59,-33.88"/>
<polygon fill="black" stroke="black" points="131.4,-36.89 138.73,-29.23 128.23,-30.65 131.4,-36.89"/>
<text text-anchor="middle" x="105.5" y="-57.8" font-family="Times,serif" font-size="14.00">0/0</text>
</g>
<!-- 10&#45;&gt;00 -->
<g id="edge5" class="edge">
<title>10&#45;&gt;00</title>
<path fill="none" stroke="black" d="M170.17,-34.8C178.26,-48.16 189.16,-68.1 195,-87 213.7,-147.53 211.32,-164.82 216,-228 216.54,-235.33 216.51,-243.29 216.22,-250.64"/>
<polygon fill="black" stroke="black" points="212.71,-250.68 215.65,-260.86 219.7,-251.07 212.71,-250.68"/>
<text text-anchor="middle" x="221.5" y="-144.8" font-family="Times,serif" font-size="14.00">0/1</text>
</g>
<!-- 10&#45;&gt;01 -->
<g id="edge6" class="edge">
<title>10&#45;&gt;01</title>
<path fill="none" stroke="black" d="M162.79,-35.92C165.83,-56.5 170.02,-92.28 168,-123 167.11,-136.51 165.24,-151.43 163.43,-163.85"/>
<polygon fill="black" stroke="black" points="159.92,-163.6 161.88,-174.01 166.84,-164.65 159.92,-163.6"/>
<text text-anchor="middle" x="179.5" y="-101.3" font-family="Times,serif" font-size="14.00">1/0</text>
</g>
</g>
</svg>
